{"docs": [{"externalId": {"kpHD": "467e936285361ab78c3ed4061d3cc363", "imdb": "tt0120338", "tmdb": 597}, "rating": {"kp": 8.383, "imdb": 7.9, "filmCritics": 8, "russianFilmCritics": 0, "await": 0}, "votes": {"kp": 746646, "imdb": 1197486, "filmCritics": 248, "russianFilmCritics": 0, "await": 0}, "movieLength": 194, "id": 2213, "type": "movie", "name": "Титаник", "description": "В первом и последнем плавании шикарного «Титаника» встречаются двое. Пассажир нижней палубы Джек выиграл билет в карты, а богатая наследница Роза отправляется в Америку, чтобы выйти замуж по расчёту. Чувства молодых людей только успевают расцвести, и даже не классовые различия создадут испытания влюблённым, а айсберг, вставший на пути считавшегося непотопляемым лайнера.", "year": 1997, "poster": {"url": "https://st.kp.yandex.net/images/film_big/2213.jpg", "previewUrl": "https://st.kp.yandex.net/images/film_iphone/iphone360_2213.jpg"}, "alternativeName": "Titanic", "enName": null, "names": [{"name": "Титаник"}, {"name": "Titanic"}], "shortDescription": "Запретная любовь на фоне гибели легендарного лайнера. Великий фильм-катастрофа — в отреставрированной версии", "logo": {"url": "https://avatars.mds.yandex.net/get-ott/223007/2a000001729e8bc06ab8fbd24ff28cf4e297/orig"}, "watchability": {"items": [{"name": "Okko", "logo": {"url": "https://avatars.mds.yandex.net/get-ott/239697/7713e586-17d1-42d1-ac62-53e9ef1e70c3/orig"}, "url": "https://okko.tv/movie/titanic?utm_medium=referral&utm_source=yandex_search&utm_campaign=new_search_feed"}, {"name": "Иви", "logo": {"url": "https://avatars.mds.yandex.net/get-ott/2419418/0dfd1724-848f-4725-9160-abc571f41c11/orig"}, "url": "https://www.ivi.ru/watch/93869?utm_source=yandex&utm_medium=wizard"}, {"name": "24ТВ", "logo": {"url": "https://avatars.mds.yandex.net/get-ott/2439731/85e83b8d-1159-4781-bad5-ce0a809b3843/orig"}, "url": "https://24h.tv/contents/1997-titanic-546325385856418727"}]}}, {"id": 709798, "alternativeName": null, "description": "В апреле 2012 года исполняется ровно 100 лет со дня одной из самых драматических техногенных катастроф начала ХХ века.\n\n14 апреля 1912 года в Атлантическом океане затонул корабль, название которого известно всему миру. «Титаник». Сколько кораблекрушений произошло до и после этой аварии, но кто назовет еще одно столь же известное? «Сам Господь Бог не смог бы потопить этот корабль!» — хвалился руководитель судоходной компании White Star Line, создавшей «Титаник».", "enName": null, "externalId": {"kpHD": "44cd0b9c239ec6718c58438828e4d3c9", "imdb": null}, "movieLength": 45, "name": "Титаник", "names": [{"name": "Титаник"}], "poster": {"url": "https://st.kp.yandex.net/images/film_big/709798.jpg", "previewUrl": "https://st.kp.yandex.net/images/film_iphone/iphone360_709798.jpg"}, "rating": {"kp": 8.473, "imdb": 7.6, "filmCritics": 0, "russianFilmCritics": 0, "await": 0}, "shortDescription": "Перст судьбы или трагическое стечение обстоятельств? Захватывающая, детальная докудрама о кораблекрушении века", "type": "tv-series", "votes": {"kp": 5506, "imdb": 21, "filmCritics": 0, "russianFilmCritics": 0, "await": 0}, "year": 2012, "logo": {"url": null}, "watchability": {"items": [{"name": "Okko", "logo": {"url": "https://avatars.mds.yandex.net/get-ott/239697/7713e586-17d1-42d1-ac62-53e9ef1e70c3/orig"}, "url": "https://okko.tv/serial/titanik?utm_medium=referral&utm_source=yandex_search&utm_campaign=new_search_feed"}, {"name": "Иви", "logo": {"url": "https://avatars.mds.yandex.net/get-ott/2419418/0dfd1724-848f-4725-9160-abc571f41c11/orig"}, "url": "https://www.ivi.ru/watch/titanik?utm_source=yandex&utm_medium=wizard"}, {"name": "Кино1ТВ", "logo": {"url": "https://avatars.mds.yandex.net/get-ott/1672343/4e5f7a8e-d5ac-4904-9fc0-208753ccf520/orig"}, "url": "https://kino.1tv.ru/serials/titanik?utm_source=yandex&utm_medium=wizard"}, {"name": "Большое ТВ", "logo": {"url": "https://avatars.mds.yandex.net/get-ott/2439731/17c7ebcf-41aa-48b6-9366-621a85f1307a/orig"}, "url": "https://bolshoe.tv/promo/web/movie/19385?segment=yandex_feed&group=peoples&utm_campaign=ya_feed&utm_medium=ya_feed"}]}, "releaseYears": [{"start": 2012, "end": 2012}]}, {"id": 89633, "type": "tv-series", "externalId": {"kpHD": null, "imdb": "tt0115392"}, "name": "Титаник", "rating": {"kp": 6.811, "imdb": 5.8, "filmCritics": 0, "russianFilmCritics": 0, "await": 0}, "description": "Покидая гавань в свой первый и последний рейс, корабль - дворец, сделанный по последнему слову техники и считающийся непотопляемым, взял на борт аристократов и слуг, богатых промышленников и нищих иммигрантов.\n\nВ истории «Титаника», ставшего роскошным монументом «позолоченного века», причудливо переплелись судьбы самых разных людей и среди них молодых влюбленных Изабеллы и Уинна. Их мечты и надежды разбились об айсберг в ночь на 15 апреля 1912 года.", "votes": {"kp": 5016, "imdb": 4467, "filmCritics": 0, "russianFilmCritics": 0, "await": 0}, "year": 1996, "poster": {"url": "https://st.kp.yandex.net/images/film_big/89633.jpg", "previewUrl": "https://st.kp.yandex.net/images/film_iphone/iphone360_89633.jpg"}, "alternativeName": "Titanic", "enName": null, "names": [{"name": "Титаник"}, {"name": "Titanic"}], "movieLength": null, "shortDescription": null, "logo": {"url": null}, "watchability": {"items": null}, "releaseYears": [{"start": 1996, "end": 1996}]}, {"externalId": {"kpHD": null, "imdb": "tt0297144", "tmdb": 24982}, "rating": {"kp": 7.595, "imdb": 6.8, "filmCritics": 7.1, "russianFilmCritics": 0, "await": 0}, "votes": {"kp": 4208, "imdb": 5661, "filmCritics": 102, "russianFilmCritics": 0, "await": 0}, "movieLength": 61, "id": 6354, "type": "movie", "name": "Призраки бездны: Титаник", "description": "Джеймс Кэмерон расcказывает подлинную историю легендарного «Титаника». Подготовка к уникальным подводным съемкам велась долгих три года, за которые были собраны новейшие технологические ресурсы и составлена команда высококлассных профессионалов, в которую помимо съемочной группы вошли известные историки и океанологи.", "year": 2003, "poster": {"url": "https://st.kp.yandex.net/images/film_big/6354.jpg", "previewUrl": "https://st.kp.yandex.net/images/film_iphone/iphone360_6354.jpg"}, "alternativeName": "Ghosts of the Abyss", "enName": null, "names": [{"name": "Призраки бездны: Титаник"}, {"name": "Ghosts of the Abyss"}], "shortDescription": null, "logo": {"url": null}, "watchability": {"items": null}}, {"id": 591839, "type": "tv-series", "externalId": {"kpHD": "47455329c777e32ea91e4d976768a62a", "imdb": "tt2495766"}, "name": "Титаник", "rating": {"kp": 6.745, "imdb": 6, "filmCritics": 0, "russianFilmCritics": 0, "await": 72.87}, "description": "Новый проект «Титаник» представляет собой версию трагических событий, которые имели место в северной Атлантике в 1912 году. Катастрофа Титаника самое известное и масштабное кораблекрушение в истории мореплавания. Корабль, построенный в 1912 год, отправился в свое первое и последнее плавание из английского Саутгемптона в Нью-Йорк.\r\n\r\nЭто был крупнейший на тот момент пассажирский лайнер, на борту которого легко размещались более двух тысяч человек. Конструкторы утверждали, что благодаря своей конструкции корабль практически непотопляем. На борту присутствовали как миллионеры, известные актеры и аристократы, так и простые люди, которые ехали на нижних палубах в тесноте. \r\n\r\nС момента отплытия и до катастрофы жизнь на корабле протекала в обычном для того времени ритме. К услугам богатых пассажиров были все блага цивилизации, а простые люди были вынуждены почти все время проводить в душных каютах нижней палубы. \r\n\r\nИ только когда корабль столкнулся с айсбергом и начал тонуть, стало ясно, что перед лицом неминуемой смерти все равны - и миллионеры, и простые рабочие…", "votes": {"kp": 1823, "imdb": 3366, "filmCritics": 0, "russianFilmCritics": 0, "await": 244}, "year": 2012, "poster": {"url": "https://st.kp.yandex.net/images/film_big/591839.jpg", "previewUrl": "https://st.kp.yandex.net/images/film_iphone/iphone360_591839.jpg"}, "alternativeName": "Titanic", "enName": null, "names": [{"name": "Титаник"}, {"name": "Titanic"}], "movieLength": null, "shortDescription": "Истории любви и классовой сегрегации на фоне масштабной трагедии. Драма от режиссера «Дневника Анны Франк»", "logo": {"url": "https://avatars.mds.yandex.net/get-ott/2439731/2a0000017213284914d441045e43651ce806/orig"}, "watchability": {"items": null}, "releaseYears": [{"start": 2012, "end": 2012}]}, {"externalId": {"kpHD": "4b1c5feeccd8916d9160f8b2a8c1eee3", "imdb": "tt4247440", "tmdb": 467839}, "rating": {"kp": 3.681, "imdb": 2.1, "filmCritics": 0, "russianFilmCritics": 0, "await": 0}, "votes": {"kp": 1613, "imdb": 379, "filmCritics": 0, "russianFilmCritics": 0, "await": 37}, "movieLength": 85, "id": 856205, "type": "movie", "name": "Чужие против Титаника", "description": "Экипаж круизного космического корабля «Титаник» столкнулся с астероидом и потерпел крушение во время своего первого полёта. Большинству пассажиров посчастливилось умереть, но пять человек выжили. И очень скоро пожалели об этом.", "year": 2017, "poster": {"url": "https://st.kp.yandex.net/images/film_big/856205.jpg", "previewUrl": "https://st.kp.yandex.net/images/film_iphone/iphone360_856205.jpg"}, "alternativeName": "Aliens vs. Titanic", "enName": null, "names": [{"name": "Чужие против Титаника"}, {"name": "Aliens vs. Titanic"}], "shortDescription": "Экипаж космолета сталкивается с иноземными монстрами. Ироничный хоррор об опасностях космического туризма", "logo": {"url": "https://avatars.mds.yandex.net/get-ott/1534341/2a0000017b17e77f09a30ba046cc566d2a7f/orig"}, "watchability": {"items": [{"name": "Okko", "logo": {"url": "https://avatars.mds.yandex.net/get-ott/239697/7713e586-17d1-42d1-ac62-53e9ef1e70c3/orig"}, "url": "https://okko.tv/movie/aliens-vs-titanic?utm_medium=referral&utm_source=yandex_search&utm_campaign=new_search_feed"}, {"name": "Иви", "logo": {"url": "https://avatars.mds.yandex.net/get-ott/2419418/0dfd1724-848f-4725-9160-abc571f41c11/orig"}, "url": "https://www.ivi.ru/watch/460466?utm_source=yandex&utm_medium=wizard"}, {"name": "KION", "logo": {"url": "https://avatars.mds.yandex.net/get-ott/239697/daeb142e-3ecc-4bb2-9bff-4827996643ab/orig"}, "url": "https://kion.ru/video/movie/456274180?utm_source=yandex&utm_medium=organic&utm_campaign=wizard"}, {"name": "МегаФон ТВ", "logo": {"url": "https://avatars.mds.yandex.net/get-ott/1672343/74a3af87-2bfa-4cdc-bc16-32a21114665b/orig"}, "url": "https://megafon.tv/movies/vods/Chuzhiye_protiv_Titanika_2017?utm_source=yandex&utm_medium=wizard&utm_campaign=Chuzhiye_protiv_Titanika_2017"}, {"name": "НТВ-ПЛЮС Онлайн ТВ", "logo": {"url": "https://avatars.mds.yandex.net/get-ott/223007/c6b9b3d8-3258-4394-9cae-c86fdb56a0c6/orig"}, "url": "https://ntvplus.tv/watch/23710-chuzhie-protiv-titanika?utm_source=kinopoisk"}]}}, {"id": 439973, "externalId": {"kpHD": null}, "name": "Евгений Гришковец: Титаник", "alternativeName": null, "enName": null, "names": [{"name": "Евгений Гришковец: Титаник"}], "type": "movie", "year": 2006, "description": "Трогательная, забавная и нежная история, сочиненная в маленьком театре в маленьком городе о большом-большом мире, о ощущениях этого мира.  «Титаник» скромная история, наполненная самым нежным постмодернизмом, который в 1992 году даже не осознавал, что им является.", "shortDescription": null, "rating": {"kp": 6.979, "imdb": 0, "filmCritics": 0, "russianFilmCritics": 0, "await": 0}, "votes": {"kp": 1194, "imdb": 0, "filmCritics": 0, "russianFilmCritics": 0, "await": 0}, "movieLength": 93, "poster": {"url": "https://st.kp.yandex.net/images/film_big/439973.jpg", "previewUrl": "https://st.kp.yandex.net/images/film_iphone/iphone360_439973.jpg"}, "watchability": {"items": null}, "releaseYears": []}, {"externalId": {"kpHD": null, "imdb": "tt0046435", "tmdb": 16535}, "rating": {"kp": 7.204, "imdb": 7, "filmCritics": 6.8, "russianFilmCritics": 0, "await": 0}, "votes": {"kp": 1178, "imdb": 7248, "filmCritics": 12, "russianFilmCritics": 0, "await": 0}, "movieLength": 98, "id": 1135, "type": "movie", "name": "Титаник", "description": "Неудовлетворенная жизнью Джулия Стерджес решает отправиться за океан с двумя детьми. Ее муж, не желая терять контакт с детьми, садится на тот же корабль, чтобы приехать в Америку вместе с семьей. Корабль назывался «Титаник»...", "year": 1953, "poster": {"url": "https://st.kp.yandex.net/images/film_big/1135.jpg", "previewUrl": "https://st.kp.yandex.net/images/film_iphone/iphone360_1135.jpg"}, "alternativeName": "Titanic", "enName": null, "names": [{"name": "Титаник"}, {"name": "Titanic"}], "shortDescription": null, "logo": {"url": null}, "watchability": {"items": [{"name": "Иви", "logo": {"url": "https://avatars.mds.yandex.net/get-ott/2419418/0dfd1724-848f-4725-9160-abc571f41c11/orig"}, "url": "https://www.ivi.ru/watch/161484?utm_source=yandex&utm_medium=wizard"}]}}, {"id": 654849, "alternativeName": "Titanic: The Final Word with James Cameron", "description": "«Айсберг!!! Прямо по курсу...» - эту часть истории о Титанике мы все знаем. Но что происходило с кораблем после того, как он скрылся под водой? Титаник - превосходная, не решенная загадка. Что происходило в последние минуты с кораблем? Как он развалился? Как он утонул? Как достиг дна? Почему он затонул так быстро? Можно ли было спасти больше людей? Впервые Джеймс Кэмерон собрал все свидетельства и восьмерых ведущих экспертов по Титанику, всех в одной комнате. Одни были на месте крушения, другие находили показания очевидцев, а третьи проводили непосредственный анализ. Сейчас, в столетнюю годовщину трагедии и через 15 лет после выхода фильма настало время сказать последнее слово по поводу того, что же случилось с Титаником.", "enName": null, "externalId": {"kpHD": null, "imdb": "tt2132504", "tmdb": 102041}, "movieLength": 120, "name": "Титаник: Заключительное слово с Джеймсом Кэмероном", "names": [{"name": "Титаник: Заключительное слово с Джеймсом Кэмероном"}, {"name": "Titanic: The Final Word with James Cameron"}], "poster": {"url": "https://st.kp.yandex.net/images/film_big/654849.jpg", "previewUrl": "https://st.kp.yandex.net/images/film_iphone/iphone360_654849.jpg"}, "rating": {"kp": 7.878, "imdb": 7.5, "filmCritics": 0, "russianFilmCritics": 0, "await": 0}, "shortDescription": null, "type": "movie", "votes": {"kp": 1154, "imdb": 684, "filmCritics": 0, "russianFilmCritics": 0, "await": 13}, "year": 2012, "logo": {"url": null}, "watchability": {"items": null}}, {"id": 574451, "type": "tv-series", "externalId": {"kpHD": null, "imdb": "tt1695366", "tmdb": 40161}, "name": "Титаник: Кровь и сталь", "rating": {"kp": 7.514, "imdb": 7.2, "filmCritics": 0, "russianFilmCritics": 0, "await": 0}, "description": "Главными действующими лицами сериала станут собственно создатели лайнера, заранее названного непотопляемым, вынужденные работать в атмосфере политического и финансового давления. Джейкоби сыграет владельца компании Harland & Wolff, со стапелей которой и сошел обреченный «четырехтрубник», Ноту предстоит перевоплотиться в финансиста Джей Пи Моргана, а Нив Кэмпбелл станет журналисткой, освещающей первое плавание «Титаника» и имеющей свои причины оказаться на борту.", "votes": {"kp": 998, "imdb": 2058, "filmCritics": 0, "russianFilmCritics": 0, "await": 72}, "year": 2012, "poster": {"url": "https://st.kp.yandex.net/images/film_big/574451.jpg", "previewUrl": "https://st.kp.yandex.net/images/film_iphone/iphone360_574451.jpg"}, "alternativeName": "Titanic: Blood and Steel", "enName": null, "movieLength": 54, "names": [{"name": "Титаник: Кровь и сталь"}, {"name": "Titanic: Blood and Steel"}], "shortDescription": null, "logo": {"url": null}, "watchability": {"items": null}, "releaseYears": [{"start": 2012, "end": 2012}]}], "total": 49, "limit": 10, "page": 1, "pages": 5}