{"docs": [
 {"name": "Титаник", "year": 1997, "genres": [{"name": "мелодрама"}, {"name": "история"}, {"name": "триллер"}, {"name": "драма"}], "countries": [{"name": "США"}, {"name": "Мексика"}]},
 {"countries": [{"name": "Россия"}], "genres": [{"name": "документальный"}, {"name": "драма"}], "name": "Титаник", "year": 2012},
 {"name": "Титаник", "year": 1996, "genres": [{"name": "драма"}, {"name": "мелодрама"}, {"name": "история"}], "countries": [{"name": "Канада"}, {"name": "США"}]},
 {"name": "Призраки бездны: Титаник", "year": 2003, "genres": [{"name": "документальный"}, {"name": "семейный"}], "countries": [{"name": "США"}, {"name": "Франция"}]},
 {"name": "Титаник", "year": 2012, "genres": [{"name": "драма"}, {"name": "история"}], "countries": [{"name": "Великобритания"}, {"name": "Канада"}, {"name": "Венгрия"}]},
 {"name": "Чужие против Титаника", "year": 2017, "genres": [{"name": "ужасы"}, {"name": "фантастика"}, {"name": "боевик"}, {"name": "триллер"}, {"name": "комедия"}, {"name": "приключения"}], "countries": [{"name": "США"}]}, {"name": "Евгений Гришковец: Титаник", "year": 2006, "genres": [{"name": "драма"}], "countries": [{"name": "Россия"}]},
 {"name": "Титаник", "year": 1953, "genres": [{"name": "драма"}, {"name": "мелодрама"}, {"name": "история"}], "countries": [{"name": "США"}]},
 {"countries": [{"name": "США"}], "genres": [{"name": "документальный"}], "name": "Титаник: Заключительное слово с Джеймсом Кэмероном", "year": 2012},
 {"name": "Титаник: Кровь и сталь", "year": 2012, "genres": [{"name": "драма"}], "countries": [{"name": "Ирландия"}, {"name": "Италия"}, {"name": "Франция"}, {"name": "Канада"}, {"name": "Великобритания"}, {"name": "Испания"}, {"name": "Германия"}]}
 ],
 "total": 49, "limit": 10, "page": 1, "pages": 5}